iter=99, logProb=-124242.75, oldLogProb=-124280.26
alphaPass... betaPass... gammasPass... re-estimate pi... A... B...
Final B = 
  [ 0.15305319  0.14815073]
a [ 0.09589394  0.04652926]
b [ 0.02585697  0.00059778]
c [ 0.02152565  0.03737711]
d [ 0.03927271  0.03302329]
e [ 0.12428777  0.09209468]
f [ 0.00480347  0.0300661 ]
g [ 0.00384441  0.02413762]
h [ 0.01985576  0.05421438]
i [ 0.03114012  0.08798077]
j [ 0.00394881  0.00013398]
k [ 0.00528253  0.00366774]
l [ 0.07995044  0.00208887]
m [ 0.02498357  0.01622373]
n [ 0.01932085  0.09453505]
o [ 0.04170868  0.08820403]
p [ 0.03815861  0.00344658]
q [  1.57693347e-03   4.14691250e-06]
r [ 0.07368352  0.0351697 ]
s [ 0.06213971  0.05475432]
t [ 0.047861    0.10843409]
u [ 0.03460661  0.01188548]
v [ 0.00537435  0.01035218]
w [ 0.00960567  0.01441923]
x [ 0.00497861  0.00035654]
y [ 0.02726324  0.00126773]
z [  2.28542079e-05   8.84880653e-04]
1.0 1.0
Final pi = 
[  4.54068011e-10   1.00000000e+00]
Final A = 
[[ 0.66562571  0.33437429]
 [ 0.29148991  0.70851009]]

