\relax 
\providecommand*\new@tpo@label[2]{}
\newlabel{code:hw2-q11a}{{1}{1}}
\@writefile{lol}{\contentsline {lstlisting}{\numberline {1}\texttt  {Excerpt of Python script to encrypt the text}}{1}}
\@writefile{lof}{\contentsline {figure}{\numberline {1}{\ignorespaces Screenshot of execution \texttt  {Ch2-Q11a.py}}}{1}}
\newlabel{f:hw2-q11a}{{1}{1}}
\@writefile{lof}{\contentsline {figure}{\numberline {2}{\ignorespaces Screenshot of HMM Run with N=2, M=26, T=50,000; Final transpose of B matrix}}{2}}
\newlabel{f:hw2-q11b}{{2}{2}}
\@writefile{lof}{\contentsline {figure}{\numberline {3}{\ignorespaces Screenshot of the normalized Digraph matrix A analysing 7-million characters}}{3}}
\newlabel{f:hw2-q11c}{{3}{3}}
\@writefile{lof}{\contentsline {figure}{\numberline {4}{\ignorespaces Screenshot of HMM on the ciphertext (T=1000), iterations=200, N = M = 26}}{4}}
\newlabel{f:hw2-q11d}{{4}{4}}
\newlabel{code:hw2-q11d}{{2}{4}}
\@writefile{lol}{\contentsline {lstlisting}{\numberline {2}\texttt  {Excerpt of C code snippet to compute the match fraction on the final B matrix}}{4}}
\newlabel{tableQ14}{{}{5}}
\@writefile{lot}{\contentsline {table}{\numberline {1}{\ignorespaces Summary of Match Fraction from HMMs with Different n (restarts) and T (ciphertext size)}}{5}}
\@writefile{lof}{\contentsline {figure}{\numberline {5}{\ignorespaces Screenshot of Log Files from HMM Runs}}{6}}
\newlabel{f:hw2-q15}{{5}{6}}
\@writefile{lof}{\contentsline {figure}{\numberline {6}{\ignorespaces Screenshot of Best Recovery Score of 16 from one of HMM Logs Files}}{7}}
\newlabel{f:hw2-q15}{{6}{7}}
