\relax 
\providecommand*\new@tpo@label[2]{}
\@writefile{lof}{\contentsline {figure}{\numberline {1}{\ignorespaces Plotting the X0, X1 with its predicted Z lable}}{3}}
\@writefile{lof}{\contentsline {figure}{\numberline {2}{\ignorespaces 1000 epochs (left); 10,000 epochs (right)}}{4}}
\@writefile{lof}{\contentsline {figure}{\numberline {3}{\ignorespaces HMM output B matrix using a fixed rho=12 and various tau=0.5, 1.5, 2.5, and 3.5. The tau=2.5 and tau=3.5 are equally separate the two states (vowls vs. consonants) clearly}}{5}}
\@writefile{lof}{\contentsline {figure}{\numberline {4}{\ignorespaces HMM output B matrix using a fixed tau=2.5 and various learning rate, rho=2, 12, and 22. As expected, with the same iterations of 500, the lower the learning rate, the separation of the two states is less clearer than the higher learning rate.}}{6}}
\@writefile{lof}{\contentsline {figure}{\numberline {5}{\ignorespaces HMM (intermediate) output B matrix after 1st T=5000 training, 5th additional T=5000 online traininig, and final 10th additional T=5000 online training. Compared to the initial and intermediate B matrix, the final matrix is little bit more separable the two states, showing the merit of the online training without re-training from the scratch upon getting new observational data.}}{7}}
\@writefile{lof}{\contentsline {figure}{\numberline {6}{\ignorespaces RNN: 3-to-1 diagram}}{9}}
\newlabel{f:rnn-321}{{6}{9}}
\@writefile{lof}{\contentsline {figure}{\numberline {7}{\ignorespaces Fully connectd analog to 3-to-1 diagram}}{10}}
\newlabel{f:fc}{{7}{10}}
