\relax 
\providecommand*\new@tpo@label[2]{}
\@writefile{lof}{\contentsline {figure}{\numberline {1}{\ignorespaces K-means clustering result with K=2, K=3 and K=4}}{3}}
\@writefile{lof}{\contentsline {figure}{\numberline {2}{\ignorespaces Computed $p_{j,i}$ results}}{4}}
\@writefile{lof}{\contentsline {figure}{\numberline {3}{\ignorespaces Re-estimate of $\theta _1$ and $\theta _2$ in part b) using the $p_{j,i}$ computed in part a)}}{5}}
\@writefile{lof}{\contentsline {figure}{\numberline {4}{\ignorespaces DBSCAN plot with 4 pairs of parameters. Different color indicates distinct cluster.}}{8}}
\@writefile{lot}{\contentsline {table}{\numberline {1}{\ignorespaces Construction of decision tree based on the data in Table 7.2}}{9}}
\newlabel{t}{{1}{9}}
\@writefile{lof}{\contentsline {figure}{\numberline {5}{\ignorespaces This is the output of the $C_4$}}{13}}
\@writefile{lof}{\contentsline {figure}{\numberline {6}{\ignorespaces (Left) the first perfect classification result achieved at 17th iteration; (Right) verification of the $C_{30}$}}{14}}
