\relax 
\providecommand*\new@tpo@label[2]{}
\newlabel{eq9a}{{1}{1}}
\newlabel{eq9b}{{2}{2}}
\newlabel{eq:1}{{3}{3}}
\newlabel{eq:2}{{4}{3}}
\newlabel{eq:3}{{5}{3}}
\newlabel{eq:4}{{6}{3}}
\newlabel{eq:5}{{7}{3}}
\newlabel{eq:6}{{8}{3}}
\newlabel{eq:up}{{9}{4}}
\newlabel{eq:down}{{10}{4}}
\newlabel{eq:diff}{{11}{4}}
\newlabel{eq:now}{{12}{5}}
\newlabel{eq:final}{{13}{5}}
\newlabel{eq:x}{{15}{5}}
\newlabel{eq1}{{16}{5}}
\newlabel{eq2}{{17}{5}}
\newlabel{final}{{18}{5}}
\newlabel{KKTfinal}{{19}{5}}
