\relax 
\citation{BERT}
\@writefile{toc}{\contentsline {section}{\numberline {\relax \fontsize  {12}{14pt}\selectfont  {\S  1}}\textbf  {INTRODUCTION}}{1}}
\@writefile{toc}{\contentsline {section}{\numberline {\relax \fontsize  {12}{14pt}\selectfont  {\S  2}}\textbf  {FEATURES}}{1}}
\@writefile{lof}{\contentsline {figure}{\numberline {1}{\ignorespaces Comparison between Static vs. Dynamic Embeddings}}{1}}
\newlabel{f:embed}{{1}{1}}
\newlabel{cref@f:embed}{{[figure][1][]1}{1}}
\@writefile{lof}{\contentsline {figure}{\numberline {2}{\ignorespaces Small BERT model and its series of encoders}}{1}}
\newlabel{f:b3}{{2}{1}}
\newlabel{cref@f:b3}{{[figure][2][]2}{1}}
\citation{DL1}
\citation{Attention}
\citation{colab}
\citation{imdb}
\citation{hub}
\citation{embed-service}
\@writefile{lof}{\contentsline {figure}{\numberline {3}{\ignorespaces Various way of extracting BERT features}}{2}}
\newlabel{f:b2}{{3}{2}}
\newlabel{cref@f:b2}{{[figure][3][]3}{2}}
\@writefile{toc}{\contentsline {section}{\numberline {\relax \fontsize  {12}{14pt}\selectfont  {\S  3}}\textbf  {TECHNIQUES}}{2}}
\@writefile{lof}{\contentsline {figure}{\numberline {4}{\ignorespaces Attention Mechanism demonstrated in the fully connected tokens}}{2}}
\newlabel{f:b1}{{4}{2}}
\newlabel{cref@f:b1}{{[figure][4][]4}{2}}
\@writefile{toc}{\contentsline {section}{\numberline {\relax \fontsize  {12}{14pt}\selectfont  {\S  4}}\textbf  {DATASETS AND TOOLS}}{2}}
\@writefile{toc}{\contentsline {section}{\numberline {\relax \fontsize  {12}{14pt}\selectfont  {\S  5}}\textbf  {RESULTS}}{2}}
\@writefile{lof}{\contentsline {figure}{\numberline {5}{\ignorespaces Evaluation on the Inference Set with ROC-AUC plots and Confusion Matrices}}{2}}
\bibcite{Word2Vec}{1}
\bibcite{Attention}{2}
\bibcite{BERT}{3}
\bibcite{USE}{4}
\bibcite{imdb}{5}
\bibcite{colab}{6}
\bibcite{hub}{7}
\bibcite{embed-service}{8}
\@writefile{lot}{\contentsline {table}{\numberline {I}{\ignorespaces Sentiment Analysis Results}}{3}}
\newlabel{Tall}{{I}{3}}
\newlabel{cref@Tall}{{[table][1][]I}{3}}
\@writefile{toc}{\contentsline {section}{\numberline {\relax \fontsize  {12}{14pt}\selectfont  {\S  6}}\textbf  {DISCUSSION/CONCLUSION}}{3}}
\@writefile{lof}{\contentsline {figure}{\numberline {6}{\ignorespaces Misclassified (False Negative) Instances from the TF-IDF with Naive-Bayes vs. BERT with Linear-Classifier}}{3}}
\newlabel{fn}{{6}{3}}
\newlabel{cref@fn}{{[figure][6][]6}{3}}
\@writefile{toc}{\contentsline {section}{\relax \fontsize  {14}{17pt}\selectfont  References}{3}}
