\relax 
\providecommand*\new@tpo@label[2]{}
\newlabel{code:hw1-q3}{{1}{4}}
\@writefile{lol}{\contentsline {lstlisting}{\numberline {1}\texttt  {hmmQ3.py}}{4}}
\newlabel{code:hw1-q10}{{2}{13}}
\@writefile{lol}{\contentsline {lstlisting}{\numberline {2}\texttt  {hmmQ10.py}}{13}}
\@writefile{lof}{\contentsline {figure}{\numberline {1}{\ignorespaces Screenshot of HMM Execution Result}}{25}}
\newlabel{f:hw1-q10}{{1}{25}}
